…
### Getting started

Use the `inzightts` function to create a temporal data set to be used by
the functions of the package. The data is stored as a
[tsibble](https://github.com/tidyverts/tsibble).

``` r
data <- visitorsQ %>%
    pivot_longer(!Date, names_to = "Country", values_to = "Visitors") %>%
    inzightts(key = "Country")
data
#> # A tsibble: 216 x 3 [1Q]
#> # Key:       Country [4]
#>      index Country   Visitors
#>      <qtr> <chr>        <int>
#>  1 1998 Q4 Australia    20288
#>  2 1999 Q1 Australia    22047
#>  3 1999 Q2 Australia    14362
#>  4 1999 Q3 Australia    15775
#>  5 1999 Q4 Australia    21209
#>  6 2000 Q1 Australia    25261
#>  7 2000 Q2 Australia    15891
#>  8 2000 Q3 Australia    17117
#>  9 2000 Q4 Australia    22761
#> 10 2001 Q1 Australia    27539
#> # … with 206 more rows
```
…
<img src="man/figuresraw-plot-1.png" width="100%" />

### Decompositions

Time series data often exhibit features such as trend, season and cycle.
A decomposition plot breaks the data into visual components which
simplies the analysis.

``` r
dcmp <- data %>%
    filter(Country == "Australia") %>%
    inzightts() %>%
    decomp()
dcmp
#> # A dable: 54 x 8 [1Q]
#> # Key:     Country, .model [1]
#> # :        Visitors = trend + season_year + remainder
#>    Country   .model                                     index Visit…¹  trend seaso…² remai…³ seaso…⁴
#>  * <chr>     <chr>                                      <qtr>   <dbl>  <dbl>   <dbl>   <dbl>   <dbl>
#>  1 Australia feasts::STL(Visitors ~ trend() + season… 1998 Q4   20288 16858.   2191.   1239.  18097.
#>  2 Australia feasts::STL(Visitors ~ trend() + season… 1999 Q1   22047 17586.   7515.  -3054.  14532.
#>  3 Australia feasts::STL(Visitors ~ trend() + season… 1999 Q2   14362 18173.  -5731.   1920.  20093.
#>  4 Australia feasts::STL(Visitors ~ trend() + season… 1999 Q3   15775 18928.  -3975.    822.  19750.
#>  5 Australia feasts::STL(Visitors ~ trend() + season… 1999 Q4   21209 19248.   2191.   -230.  19018.
#>  6 Australia feasts::STL(Visitors ~ trend() + season… 2000 Q1   25261 19601.   7515.  -1855.  17746.
#>  7 Australia feasts::STL(Visitors ~ trend() + season… 2000 Q2   15891 20127.  -5731.   1496.  21622.
#>  8 Australia feasts::STL(Visitors ~ trend() + season… 2000 Q3   17117 20652.  -3975.    439.  21092.
#>  9 Australia feasts::STL(Visitors ~ trend() + season… 2000 Q4   22761 20972.   2191.   -402.  20570.
#> 10 Australia feasts::STL(Visitors ~ trend() + season… 2001 Q1   27539 21528.   7515.  -1504.  20024.
#> # … with 44 more rows, and abbreviated variable names ¹​Visitors, ²​season_year, ³​remainder,
#> #   ⁴​season_adjust
```
…
